%YAML 1.1
%TAG !u! tag:unity3d.com,2011:
--- !u!1045 &1
EditorBuildSettings:
  m_ObjectHideFlags: 0
  serializedVersion: 2
  m_Scenes:
  - enabled: 1
    path: Assets/Scenes/Scene_MainMenu.unity
    guid: c0364429491c5074fb8fde86475551f9
  - enabled: 1
    path: Assets/Scenes/Scene_LevelSelection.unity
    guid: b5bb008ffb6d2fa41b4361b5e1522cba
  - enabled: 1
    path: Assets/Scenes/Scene_LevelOne.unity
    guid: 5715a324cdbc1624f8b834c35eceed93
  - enabled: 1
    path: Assets/Scenes/Scene_LevelTwo.unity
    guid: d0d8da955b7029544aea1e295df45ce6
  - enabled: 1
    path: Assets/Scenes/Scene_LevelThree.unity
    guid: fcd5cf706a40cf14899881793ac0d46e
  - enabled: 1
    path: Assets/Scenes/Scene_Credits.unity
    guid: 00000000000000000000000000000000
